<?xml version="1.0" encoding="utf-8"?>
<!-- Generator: Adobe Illustrator 24.1.2, SVG Export Plug-In . SVG Version: 6.00 Build 0)  -->
<svg version="1.1" xmlns="http://www.w3.org/2000/svg" xmlns:xlink="http://www.w3.org/1999/xlink" x="0px" y="0px"
	 viewBox="0 0 40 40" style="enable-background:new 0 0 40 40;" xml:space="preserve">
<style type="text/css">
	.st0{fill:#FFFFFF;stroke:#000000;stroke-miterlimit:10;}
	.st1{display:none;}
	.st2{display:inline;}
	.st3{fill:#CC0000;}
</style>
<g id="skill_x5F_blank">
	<polygon class="st0" points="20,2.5 2.26,16.05 9.04,37.98 30.96,37.98 37.74,16.05 	"/>
</g>
<g id="skill_x5F_e" class="st1">
	<g class="st2">
		<g>
			<path class="st3" d="M11.42,22.19c-0.21-1.32,0.08-2.65,0.86-3.97c0.78-1.32,1.9-2.47,3.37-3.43c1.48-0.96,3.01-1.41,4.59-1.34
				c-0.74,0.22-1.46,0.48-2.16,0.77c-0.7,0.28-1.3,0.68-1.81,1.2c-0.51,0.52-0.89,1.2-1.13,2.05c-0.24,0.86-0.29,1.95-0.15,3.29
				c0.26-0.02,0.51-0.01,0.77,0.04c0.26,0.05,0.51,0.13,0.75,0.26c0.57,0.32,0.95,0.78,1.12,1.39s0.09,1.19-0.26,1.74
				c-0.29,0.5-0.72,0.85-1.29,1.03c-0.57,0.18-1.12,0.17-1.66-0.04C12.63,24.52,11.63,23.52,11.42,22.19z M14.57,27.37
				c0.61,0.43,1.28,0.73,2,0.9c0.73,0.16,1.53,0.13,2.41-0.09c0.89-0.21,1.9-0.71,3.04-1.51c-0.16-0.2-0.28-0.42-0.37-0.66
				c-0.09-0.24-0.13-0.49-0.13-0.75c0-0.63,0.23-1.17,0.7-1.63s1.03-0.68,1.69-0.68c0.6,0,1.12,0.19,1.56,0.57s0.71,0.85,0.8,1.4
				c0.3,1.82-0.09,3.15-1.19,3.99s-2.44,1.27-4.02,1.28c-1.58,0.01-3.18-0.36-4.79-1.11c-1.6-0.74-2.76-1.78-3.5-3.13
				C13.37,26.47,13.96,26.94,14.57,27.37z M23.41,18.5c-0.17,0.19-0.37,0.35-0.6,0.49c-0.57,0.32-1.18,0.39-1.81,0.23
				c-0.63-0.16-1.12-0.52-1.45-1.07c-0.3-0.5-0.4-1.04-0.28-1.6c0.12-0.56,0.41-1.01,0.87-1.35c1.49-1.16,2.89-1.49,4.19-1
				c1.31,0.49,2.36,1.39,3.16,2.7s1.27,2.82,1.4,4.53s-0.23,3.21-1.08,4.48c0.17-0.74,0.3-1.46,0.38-2.18
				c0.1-0.73,0.04-1.43-0.18-2.12s-0.65-1.34-1.28-1.96c-0.65-0.63-1.62-1.22-2.91-1.76C23.72,18.1,23.58,18.31,23.41,18.5z"/>
		</g>
	</g>
</g>
<g id="skill_x5F_et" class="st1">
	<g class="st2">
		<path class="st3" d="M16.22,22.09c0.14-0.11,0.3-0.16,0.48-0.16c0.24,0,0.44,0.09,0.61,0.28s0.25,0.41,0.25,0.66
			c0,0.26-0.08,0.48-0.25,0.67s-0.37,0.27-0.61,0.27c-1.51,0.11-2.74,0.47-3.69,1.08c-0.96,0.62-1.61,1.34-1.96,2.16
			s-0.39,1.68-0.11,2.56s0.91,1.66,1.88,2.31c0.13-0.85,0.32-1.49,0.58-1.92s0.56-0.74,0.9-0.93s0.69-0.3,1.07-0.34
			c0.38-0.03,0.76-0.08,1.13-0.13l-0.36,2.73l1.19,1.23c0.91-0.67,1.56-1.32,1.93-1.97s0.52-1.28,0.44-1.9s-0.37-1.24-0.86-1.85
			c-0.5-0.61-1.16-1.21-1.99-1.8c1.25,0.56,2.22,1.16,2.89,1.8s1.05,1.33,1.13,2.07s-0.16,1.52-0.7,2.36
			c-0.54,0.83-1.4,1.71-2.59,2.64l-2.36-2.09l-0.04-1.93c-0.42,0.02-0.77,0.33-1.05,0.94s-0.43,1.71-0.45,3.29
			c-1.74-1.38-2.9-2.66-3.47-3.83c-0.56-1.17-0.67-2.23-0.35-3.2s1.03-1.83,2.11-2.59c1.07-0.76,2.38-1.43,3.91-1.99
			C15.97,22.33,16.07,22.2,16.22,22.09z"/>
	</g>
	<g class="st2">
		<path class="st3" d="M17.93,18.12c-0.16-1.03,0.06-2.06,0.64-3.09c0.58-1.03,1.42-1.92,2.52-2.67c1.1-0.75,2.25-1.09,3.43-1.04
			c-0.56,0.17-1.09,0.37-1.61,0.6c-0.52,0.22-0.97,0.53-1.35,0.94c-0.38,0.41-0.67,0.94-0.85,1.59c-0.18,0.67-0.22,1.52-0.11,2.56
			c0.19-0.02,0.38-0.01,0.57,0.03c0.19,0.04,0.38,0.1,0.56,0.21c0.43,0.25,0.71,0.61,0.83,1.08c0.13,0.47,0.06,0.93-0.19,1.35
			c-0.22,0.39-0.54,0.66-0.96,0.8c-0.42,0.14-0.84,0.13-1.24-0.03C18.84,19.93,18.09,19.15,17.93,18.12z M20.29,22.15
			c0.46,0.34,0.95,0.57,1.5,0.7c0.54,0.13,1.14,0.1,1.8-0.07c0.67-0.16,1.42-0.56,2.27-1.18c-0.12-0.15-0.21-0.33-0.27-0.51
			c-0.06-0.19-0.1-0.38-0.1-0.58c0-0.49,0.18-0.91,0.53-1.26c0.35-0.35,0.77-0.53,1.26-0.53c0.45,0,0.84,0.15,1.17,0.44
			c0.33,0.3,0.53,0.66,0.59,1.09c0.23,1.41-0.07,2.45-0.89,3.1s-1.82,0.99-3,1c-1.18,0.01-2.37-0.28-3.58-0.86
			c-1.19-0.57-2.06-1.39-2.61-2.43C19.39,21.45,19.83,21.81,20.29,22.15z M26.89,15.24c-0.13,0.15-0.28,0.27-0.45,0.38
			c-0.43,0.25-0.88,0.31-1.35,0.18c-0.47-0.13-0.83-0.41-1.08-0.83c-0.23-0.39-0.3-0.81-0.21-1.24c0.09-0.44,0.3-0.79,0.65-1.05
			c1.11-0.9,2.16-1.16,3.13-0.78c0.98,0.38,1.76,1.08,2.36,2.1c0.6,1.02,0.95,2.19,1.05,3.52c0.1,1.33-0.17,2.49-0.81,3.49
			c0.13-0.57,0.22-1.14,0.29-1.7c0.07-0.56,0.03-1.11-0.14-1.65s-0.48-1.04-0.96-1.52c-0.48-0.49-1.21-0.95-2.17-1.37
			C27.12,14.94,27.02,15.1,26.89,15.24z"/>
	</g>
</g>
<g id="skill_x5F_o">
	<g>
		<g>
			<path class="st3" d="M11.97,25.1c-0.27-0.3-0.4-0.65-0.4-1.06c0-0.46,0.17-0.85,0.5-1.17c0.34-0.32,0.74-0.48,1.22-0.48
				c0.46,0,0.86,0.16,1.2,0.48s0.5,0.71,0.5,1.17c0,0.06,0,0.11,0,0.16s-0.01,0.09-0.02,0.14c0.96,0.06,1.75-0.08,2.36-0.4
				c0.61-0.33,1.15-0.74,1.61-1.23c-0.16,0.6-0.39,1.12-0.7,1.56c-0.31,0.46-0.7,0.82-1.17,1.08c-0.48,0.26-1.06,0.43-1.74,0.5
				c-0.67,0.06-1.46-0.01-2.36-0.19C12.58,25.58,12.24,25.4,11.97,25.1z M13.08,16.69c0.14-0.38,0.39-0.66,0.76-0.86
				c0.42-0.23,0.85-0.29,1.31-0.18s0.8,0.37,1.03,0.77c0.24,0.4,0.3,0.82,0.17,1.26s-0.39,0.77-0.8,0.99
				c-0.05,0.02-0.1,0.05-0.15,0.07s-0.1,0.04-0.15,0.05c0.44,0.84,0.96,1.44,1.56,1.78c0.6,0.34,1.23,0.58,1.9,0.72
				c-0.61,0.16-1.2,0.23-1.76,0.19c-0.56-0.02-1.08-0.17-1.56-0.43c-0.48-0.26-0.92-0.66-1.32-1.19c-0.39-0.53-0.73-1.22-1.01-2.07
				C12.94,17.43,12.94,17.06,13.08,16.69z M17.04,29.04c-0.12-0.44-0.07-0.86,0.16-1.26c0.24-0.39,0.59-0.64,1.05-0.76
				c0.46-0.12,0.89-0.06,1.29,0.16c0.05,0.02,0.09,0.05,0.14,0.08c0.04,0.03,0.08,0.06,0.12,0.1c0.54-0.79,0.81-1.51,0.82-2.18
				s-0.09-1.32-0.29-1.95c0.45,0.43,0.81,0.89,1.06,1.37c0.24,0.48,0.37,0.98,0.38,1.51s-0.13,1.09-0.41,1.69
				c-0.28,0.59-0.73,1.21-1.35,1.88c-0.27,0.29-0.61,0.48-1.02,0.55s-0.8,0.01-1.16-0.2C17.43,29.81,17.17,29.47,17.04,29.04z
				 M20.23,13.96c0.26-0.29,0.59-0.48,1-0.55c0.41-0.08,0.8-0.01,1.16,0.2c0.41,0.22,0.68,0.55,0.81,0.99
				c0.12,0.44,0.06,0.86-0.18,1.26c-0.23,0.39-0.58,0.64-1.03,0.76c-0.46,0.12-0.89,0.06-1.31-0.16c-0.05-0.02-0.09-0.05-0.14-0.08
				c-0.04-0.03-0.08-0.06-0.12-0.1c-0.54,0.79-0.81,1.51-0.81,2.18s0.09,1.32,0.3,1.95c-0.45-0.43-0.81-0.89-1.06-1.37
				c-0.26-0.48-0.38-0.98-0.38-1.51s0.14-1.09,0.42-1.69C19.15,15.26,19.61,14.63,20.23,13.96z M25.23,19.45
				c0.01-0.05,0.02-0.09,0.03-0.14c-0.98-0.06-1.77,0.08-2.38,0.4s-1.15,0.74-1.61,1.23c0.17-0.6,0.41-1.12,0.71-1.56
				c0.29-0.46,0.68-0.82,1.16-1.08c0.48-0.26,1.06-0.43,1.73-0.5c0.67-0.06,1.46,0.01,2.38,0.19c0.4,0.07,0.74,0.25,1.01,0.55
				c0.27,0.3,0.4,0.65,0.4,1.06c0,0.46-0.17,0.85-0.5,1.17s-0.74,0.48-1.22,0.48c-0.48,0-0.88-0.16-1.22-0.48
				c-0.34-0.32-0.5-0.71-0.5-1.17C25.23,19.55,25.23,19.49,25.23,19.45z M23.87,25.96c0.12-0.44,0.39-0.77,0.81-0.99
				c0.04-0.02,0.08-0.05,0.13-0.07s0.1-0.04,0.15-0.05c-0.43-0.84-0.94-1.44-1.55-1.78s-1.24-0.58-1.91-0.72
				c0.62-0.16,1.21-0.23,1.76-0.19c0.56,0.02,1.08,0.17,1.56,0.43s0.92,0.66,1.31,1.19c0.39,0.53,0.73,1.22,1.02,2.07
				c0.13,0.36,0.13,0.73-0.01,1.11c-0.14,0.38-0.39,0.66-0.76,0.86c-0.4,0.23-0.83,0.29-1.29,0.18c-0.46-0.12-0.81-0.38-1.05-0.77
				C23.8,26.82,23.75,26.4,23.87,25.96z"/>
		</g>
	</g>
</g>
<g id="skill_x5F_ot" class="st1">
	<g class="st2">
		<path class="st3" d="M16.22,22.09c0.14-0.11,0.3-0.16,0.48-0.16c0.24,0,0.44,0.09,0.61,0.28s0.25,0.41,0.25,0.66
			c0,0.26-0.08,0.48-0.25,0.67s-0.37,0.27-0.61,0.27c-1.51,0.11-2.74,0.47-3.69,1.08c-0.96,0.62-1.61,1.34-1.96,2.16
			s-0.39,1.68-0.11,2.56s0.91,1.66,1.88,2.31c0.13-0.85,0.32-1.49,0.58-1.92s0.56-0.74,0.9-0.93s0.69-0.3,1.07-0.34
			c0.38-0.03,0.76-0.08,1.13-0.13l-0.36,2.73l1.19,1.23c0.91-0.67,1.56-1.32,1.93-1.97s0.52-1.28,0.44-1.9s-0.37-1.24-0.86-1.85
			c-0.5-0.61-1.16-1.21-1.99-1.8c1.25,0.56,2.22,1.16,2.89,1.8s1.05,1.33,1.13,2.07s-0.16,1.52-0.7,2.36
			c-0.54,0.83-1.4,1.71-2.59,2.64l-2.36-2.09l-0.04-1.93c-0.42,0.02-0.77,0.33-1.05,0.94s-0.43,1.71-0.45,3.29
			c-1.74-1.38-2.9-2.66-3.47-3.83c-0.56-1.17-0.67-2.23-0.35-3.2s1.03-1.83,2.11-2.59c1.07-0.76,2.38-1.43,3.91-1.99
			C15.97,22.33,16.07,22.2,16.22,22.09z"/>
	</g>
	<g class="st2">
		<path class="st3" d="M18.34,20.38c-0.2-0.23-0.3-0.51-0.3-0.83c0-0.36,0.13-0.66,0.38-0.91c0.25-0.25,0.55-0.38,0.91-0.38
			c0.35,0,0.64,0.13,0.9,0.38c0.25,0.25,0.38,0.55,0.38,0.91c0,0.05,0,0.09,0,0.12c0,0.04,0,0.07-0.01,0.11
			c0.72,0.05,1.31-0.06,1.76-0.31c0.46-0.25,0.86-0.57,1.2-0.96c-0.12,0.46-0.29,0.87-0.52,1.22c-0.23,0.36-0.52,0.64-0.88,0.84
			s-0.79,0.33-1.3,0.39c-0.5,0.05-1.09,0-1.76-0.15C18.8,20.75,18.54,20.61,18.34,20.38z M19.17,13.84c0.1-0.29,0.29-0.51,0.57-0.67
			c0.31-0.18,0.64-0.23,0.98-0.14c0.34,0.09,0.6,0.29,0.77,0.6c0.18,0.31,0.23,0.64,0.13,0.98s-0.29,0.6-0.59,0.77
			c-0.04,0.02-0.07,0.04-0.11,0.05c-0.04,0.02-0.07,0.03-0.11,0.04c0.33,0.66,0.72,1.12,1.16,1.38c0.45,0.26,0.92,0.45,1.42,0.56
			c-0.46,0.13-0.89,0.18-1.31,0.15c-0.42-0.02-0.81-0.13-1.16-0.33s-0.68-0.51-0.98-0.92c-0.29-0.41-0.54-0.95-0.75-1.61
			C19.07,14.42,19.07,14.13,19.17,13.84z M22.13,23.44c-0.09-0.34-0.05-0.67,0.12-0.98c0.18-0.3,0.44-0.5,0.79-0.59
			C23.38,21.78,23.7,21.83,24,22c0.04,0.02,0.07,0.04,0.1,0.06c0.03,0.02,0.06,0.05,0.09,0.08c0.4-0.61,0.61-1.18,0.62-1.7
			c0.01-0.52-0.06-1.03-0.22-1.52c0.34,0.34,0.6,0.69,0.79,1.07c0.18,0.37,0.28,0.77,0.28,1.18c0,0.41-0.1,0.85-0.31,1.31
			c-0.21,0.46-0.55,0.94-1.01,1.46c-0.2,0.23-0.45,0.37-0.76,0.43c-0.31,0.06-0.59,0.01-0.87-0.16
			C22.42,24.04,22.22,23.78,22.13,23.44z M24.51,11.72c0.19-0.23,0.44-0.37,0.75-0.43c0.31-0.06,0.59-0.01,0.87,0.16
			c0.31,0.17,0.51,0.43,0.6,0.77c0.09,0.34,0.05,0.67-0.14,0.98c-0.17,0.3-0.43,0.5-0.77,0.59c-0.34,0.09-0.67,0.05-0.98-0.12
			c-0.04-0.02-0.07-0.04-0.1-0.06c-0.03-0.02-0.06-0.05-0.09-0.08c-0.4,0.61-0.6,1.18-0.61,1.7c0,0.52,0.07,1.03,0.23,1.52
			c-0.34-0.34-0.6-0.69-0.79-1.07c-0.19-0.37-0.29-0.77-0.29-1.18s0.1-0.85,0.31-1.31C23.71,12.72,24.05,12.24,24.51,11.72z
			 M28.25,15.98c0-0.04,0.01-0.07,0.02-0.11c-0.73-0.05-1.32,0.06-1.78,0.31c-0.46,0.26-0.86,0.57-1.2,0.96
			c0.13-0.46,0.31-0.87,0.53-1.22c0.22-0.36,0.51-0.64,0.87-0.84c0.36-0.21,0.79-0.33,1.29-0.39c0.5-0.05,1.09,0,1.78,0.15
			c0.3,0.05,0.55,0.2,0.75,0.43c0.2,0.23,0.3,0.51,0.3,0.83c0,0.36-0.13,0.66-0.38,0.91c-0.25,0.25-0.55,0.38-0.91,0.38
			s-0.66-0.13-0.91-0.38c-0.25-0.25-0.38-0.55-0.38-0.91C28.24,16.06,28.25,16.02,28.25,15.98z M27.23,21.05
			c0.09-0.34,0.29-0.6,0.6-0.77c0.03-0.02,0.06-0.04,0.1-0.05c0.04-0.02,0.07-0.03,0.11-0.04c-0.32-0.66-0.7-1.12-1.16-1.38
			c-0.45-0.26-0.93-0.45-1.43-0.56c0.46-0.13,0.9-0.18,1.31-0.15c0.42,0.02,0.81,0.13,1.17,0.33c0.36,0.21,0.69,0.51,0.98,0.92
			c0.29,0.41,0.55,0.95,0.77,1.61c0.1,0.28,0.1,0.57-0.01,0.86c-0.1,0.29-0.29,0.52-0.57,0.67c-0.3,0.18-0.62,0.23-0.96,0.14
			c-0.34-0.09-0.6-0.29-0.79-0.6C27.18,21.72,27.14,21.39,27.23,21.05z"/>
	</g>
</g>
<g id="skill_x5F_s_1_" class="st1">
	<g class="st2">
		<g>
			<path class="st3" d="M17.98,29.61c-1.28-0.48-2.4-1.12-3.36-1.92c-0.96-0.8-1.71-1.71-2.24-2.73c-0.54-1.01-0.79-2.03-0.77-3.06
				c0.05-0.69,0.17-1.38,0.37-2.07c0.19-0.69,0.48-1.35,0.84-1.99s0.82-1.22,1.35-1.78c0.55-0.55,1.19-1.03,1.92-1.44
				c0.52-0.33,1.08-0.59,1.67-0.79s1.19-0.33,1.78-0.39h0.04h0.02c0.15-0.02,0.29-0.04,0.44-0.04s0.29-0.01,0.42-0.01
				c1.12,0,2.16,0.23,3.11,0.69c0.95,0.46,1.78,1.06,2.49,1.8c0.71,0.74,1.28,1.58,1.72,2.5c0.44,0.94,0.71,1.88,0.81,2.81
				c0.06,0.48-0.01,1.01-0.2,1.58c-0.18,0.57-0.42,1.12-0.7,1.63s-0.57,0.96-0.88,1.34c-0.29,0.39-0.52,0.64-0.7,0.76
				c0.56-0.62,1-1.32,1.31-2.11s0.47-1.62,0.47-2.5c0-0.97-0.19-1.89-0.57-2.74c-0.39-0.86-0.92-1.6-1.58-2.24s-1.44-1.15-2.33-1.52
				c-0.89-0.36-1.84-0.54-2.86-0.54c-0.99,0-1.92,0.18-2.78,0.53c-0.88,0.35-1.65,0.83-2.31,1.43c-0.66,0.6-1.18,1.32-1.57,2.14
				c-0.4,0.82-0.63,1.7-0.68,2.64l0.05,0.46c0.07,0.68,0.27,1.38,0.59,2.11c0.32,0.73,0.75,1.36,1.31,1.91s1.22,0.94,2,1.19
				c0.79,0.25,1.7,0.23,2.71-0.05c0.16-0.46,0.45-0.83,0.87-1.13s0.9-0.45,1.44-0.45c0.67,0,1.24,0.23,1.71,0.69
				c0.47,0.46,0.7,1,0.7,1.63c0,0.56-0.2,1.06-0.6,1.49s-0.98,0.71-1.74,0.83l-0.13,0.02C20.66,30.3,19.27,30.09,17.98,29.61z"/>
		</g>
	</g>
</g>
<g id="skill_x5F_so_1_" class="st1">
	<g class="st2">
		<path class="st3" d="M9.64,30.39c-0.19-0.22-0.28-0.47-0.28-0.77c0-0.33,0.12-0.61,0.35-0.84s0.51-0.35,0.84-0.35
			c0.32,0,0.6,0.12,0.83,0.35s0.35,0.51,0.35,0.84c0,0.04,0,0.08,0,0.11s0,0.07-0.01,0.1c0.67,0.04,1.21-0.06,1.64-0.29
			s0.8-0.53,1.12-0.89c-0.11,0.43-0.27,0.81-0.48,1.13c-0.21,0.33-0.48,0.59-0.81,0.78s-0.73,0.31-1.21,0.36
			c-0.47,0.04-1.01,0-1.64-0.14C10.06,30.74,9.83,30.61,9.64,30.39z M10.41,24.32c0.1-0.27,0.27-0.48,0.53-0.62
			c0.29-0.17,0.59-0.21,0.91-0.13s0.56,0.27,0.72,0.56c0.17,0.29,0.21,0.59,0.12,0.91s-0.27,0.56-0.55,0.72
			c-0.03,0.02-0.07,0.03-0.1,0.05s-0.07,0.03-0.1,0.04c0.3,0.61,0.66,1.04,1.08,1.28s0.85,0.42,1.32,0.52
			c-0.42,0.12-0.83,0.17-1.22,0.14c-0.39-0.02-0.75-0.12-1.08-0.31s-0.63-0.48-0.91-0.86c-0.27-0.38-0.5-0.88-0.7-1.5
			C10.31,24.86,10.31,24.59,10.41,24.32z M13.16,33.24c-0.08-0.32-0.05-0.62,0.11-0.91c0.17-0.28,0.41-0.46,0.73-0.55
			s0.62-0.05,0.9,0.11c0.03,0.02,0.07,0.04,0.1,0.06s0.06,0.04,0.08,0.07c0.37-0.57,0.56-1.09,0.57-1.57s-0.06-0.95-0.2-1.41
			c0.31,0.31,0.56,0.64,0.74,0.99c0.17,0.35,0.26,0.71,0.26,1.09s-0.09,0.79-0.29,1.22c-0.19,0.42-0.51,0.88-0.94,1.36
			c-0.19,0.21-0.42,0.34-0.7,0.4s-0.55,0.01-0.81-0.15C13.43,33.79,13.24,33.55,13.16,33.24z M15.37,22.35
			c0.18-0.21,0.41-0.34,0.69-0.4s0.55-0.01,0.81,0.15c0.29,0.16,0.47,0.4,0.56,0.72s0.04,0.62-0.13,0.91
			c-0.16,0.28-0.4,0.46-0.72,0.55s-0.62,0.05-0.91-0.11c-0.03-0.02-0.07-0.04-0.1-0.06s-0.06-0.04-0.08-0.07
			c-0.37,0.57-0.56,1.09-0.56,1.57s0.07,0.95,0.21,1.41c-0.31-0.31-0.56-0.64-0.74-0.99s-0.27-0.71-0.27-1.09s0.1-0.79,0.29-1.22
			C14.62,23.29,14.94,22.83,15.37,22.35z M18.84,26.31c0-0.03,0.01-0.07,0.02-0.1c-0.68-0.04-1.23,0.06-1.65,0.29
			s-0.8,0.53-1.12,0.89c0.12-0.43,0.28-0.81,0.5-1.13c0.2-0.33,0.47-0.59,0.81-0.78s0.73-0.31,1.2-0.36c0.47-0.04,1.02,0,1.65,0.14
			c0.28,0.05,0.51,0.18,0.7,0.4s0.28,0.47,0.28,0.77c0,0.33-0.12,0.61-0.35,0.84s-0.51,0.35-0.84,0.35s-0.61-0.12-0.84-0.35
			s-0.35-0.51-0.35-0.84C18.83,26.38,18.84,26.35,18.84,26.31z M17.89,31.02c0.08-0.32,0.27-0.56,0.56-0.72
			c0.03-0.02,0.06-0.03,0.09-0.05s0.07-0.03,0.1-0.04c-0.3-0.61-0.65-1.04-1.07-1.28s-0.86-0.42-1.33-0.52
			c0.43-0.12,0.84-0.17,1.22-0.14c0.39,0.02,0.75,0.12,1.09,0.31s0.64,0.48,0.91,0.86s0.51,0.88,0.71,1.5
			c0.09,0.26,0.09,0.53-0.01,0.8s-0.27,0.48-0.53,0.62c-0.28,0.17-0.58,0.21-0.9,0.13s-0.56-0.27-0.73-0.56
			C17.85,31.64,17.81,31.33,17.89,31.02z"/>
	</g>
	<g class="st2">
		<path class="st3" d="M22.83,23.89c-0.96-0.37-1.79-0.87-2.51-1.5c-0.72-0.62-1.27-1.33-1.67-2.13c-0.4-0.78-0.59-1.58-0.57-2.38
			c0.04-0.54,0.13-1.08,0.27-1.61c0.15-0.54,0.36-1.05,0.63-1.54s0.61-0.95,1.01-1.38c0.41-0.43,0.89-0.8,1.44-1.12
			c0.39-0.25,0.81-0.46,1.25-0.62c0.44-0.15,0.89-0.25,1.33-0.3h0.03h0.01c0.11-0.02,0.22-0.03,0.33-0.03
			c0.11,0,0.21-0.01,0.31-0.01c0.84,0,1.61,0.18,2.32,0.53s1.33,0.82,1.86,1.4c0.53,0.58,0.96,1.23,1.29,1.95
			c0.33,0.73,0.53,1.46,0.6,2.19c0.05,0.37,0,0.78-0.15,1.23c-0.14,0.45-0.31,0.87-0.52,1.26c-0.21,0.4-0.43,0.75-0.66,1.05
			c-0.22,0.3-0.39,0.5-0.52,0.59c0.42-0.48,0.75-1.03,0.98-1.64c0.23-0.61,0.35-1.26,0.35-1.94c0-0.76-0.14-1.47-0.42-2.13
			c-0.29-0.67-0.69-1.25-1.18-1.74c-0.5-0.5-1.08-0.89-1.74-1.18c-0.67-0.28-1.38-0.42-2.13-0.42c-0.74,0-1.43,0.14-2.08,0.41
			c-0.66,0.27-1.23,0.65-1.72,1.11c-0.49,0.47-0.88,1.02-1.18,1.66c-0.3,0.64-0.47,1.32-0.51,2.05l0.04,0.36
			c0.05,0.53,0.2,1.08,0.44,1.64c0.24,0.57,0.56,1.06,0.98,1.48c0.41,0.42,0.91,0.73,1.5,0.92c0.59,0.19,1.27,0.18,2.02-0.04
			c0.12-0.36,0.33-0.65,0.65-0.88s0.67-0.35,1.07-0.35c0.5,0,0.93,0.18,1.28,0.53c0.35,0.36,0.53,0.78,0.53,1.27
			c0,0.44-0.15,0.83-0.45,1.16s-0.73,0.55-1.3,0.64l-0.1,0.01C24.83,24.43,23.79,24.26,22.83,23.89z"/>
	</g>
</g>
<g id="skill_x5F_st_1_" class="st1">
	<g class="st2">
		<path class="st3" d="M16.22,22.09c0.14-0.11,0.3-0.16,0.48-0.16c0.24,0,0.44,0.09,0.61,0.28s0.25,0.41,0.25,0.66
			c0,0.26-0.08,0.48-0.25,0.67s-0.37,0.27-0.61,0.27c-1.51,0.11-2.74,0.47-3.69,1.08c-0.96,0.62-1.61,1.34-1.96,2.16
			s-0.39,1.68-0.11,2.56s0.91,1.66,1.88,2.31c0.13-0.85,0.32-1.49,0.58-1.92s0.56-0.74,0.9-0.93s0.69-0.3,1.07-0.34
			c0.38-0.03,0.76-0.08,1.13-0.13l-0.36,2.73l1.19,1.23c0.91-0.67,1.56-1.32,1.93-1.97s0.52-1.28,0.44-1.9s-0.37-1.24-0.86-1.85
			c-0.5-0.61-1.16-1.21-1.99-1.8c1.25,0.56,2.22,1.16,2.89,1.8c0.68,0.64,1.05,1.33,1.13,2.07s-0.16,1.52-0.7,2.36
			c-0.54,0.83-1.4,1.71-2.59,2.64l-2.36-2.09l-0.04-1.93c-0.42,0.02-0.77,0.33-1.05,0.94s-0.43,1.71-0.45,3.29
			c-1.74-1.38-2.9-2.66-3.47-3.83c-0.56-1.17-0.67-2.23-0.35-3.2s1.03-1.83,2.11-2.59c1.07-0.76,2.38-1.43,3.91-1.99
			C15.97,22.33,16.07,22.2,16.22,22.09z"/>
	</g>
	<g class="st2">
		<path class="st3" d="M22.83,23.89c-0.96-0.37-1.79-0.87-2.51-1.5c-0.72-0.62-1.27-1.33-1.67-2.13c-0.4-0.78-0.59-1.58-0.57-2.38
			c0.04-0.54,0.13-1.08,0.27-1.61c0.15-0.54,0.36-1.05,0.63-1.54s0.61-0.95,1.01-1.38c0.41-0.43,0.89-0.8,1.44-1.12
			c0.39-0.25,0.81-0.46,1.25-0.62c0.44-0.15,0.89-0.25,1.33-0.3h0.03h0.01c0.11-0.02,0.22-0.03,0.33-0.03
			c0.11,0,0.21-0.01,0.31-0.01c0.84,0,1.61,0.18,2.32,0.53s1.33,0.82,1.86,1.4c0.53,0.58,0.96,1.23,1.29,1.95
			c0.33,0.73,0.53,1.46,0.6,2.19c0.05,0.37,0,0.78-0.15,1.23c-0.14,0.45-0.31,0.87-0.52,1.26c-0.21,0.4-0.43,0.75-0.66,1.05
			c-0.22,0.3-0.39,0.5-0.52,0.59c0.42-0.48,0.75-1.03,0.98-1.64c0.23-0.61,0.35-1.26,0.35-1.94c0-0.76-0.14-1.47-0.42-2.13
			c-0.29-0.67-0.69-1.25-1.18-1.74c-0.5-0.5-1.08-0.89-1.74-1.18c-0.67-0.28-1.38-0.42-2.13-0.42c-0.74,0-1.43,0.14-2.08,0.41
			c-0.66,0.27-1.23,0.65-1.72,1.11c-0.49,0.47-0.88,1.02-1.18,1.66c-0.3,0.64-0.47,1.32-0.51,2.05l0.04,0.36
			c0.05,0.53,0.2,1.08,0.44,1.64c0.24,0.57,0.56,1.06,0.98,1.48c0.41,0.42,0.91,0.73,1.5,0.92c0.59,0.19,1.27,0.18,2.02-0.04
			c0.12-0.36,0.33-0.65,0.65-0.88s0.67-0.35,1.07-0.35c0.5,0,0.93,0.18,1.28,0.53c0.35,0.36,0.53,0.78,0.53,1.27
			c0,0.44-0.15,0.83-0.45,1.16s-0.73,0.55-1.3,0.64l-0.1,0.01C24.83,24.43,23.79,24.26,22.83,23.89z"/>
	</g>
</g>
</svg>
